week1
…
문제 6. confirmed_number 파생변수 생성

# 확진날짜별 확진자수 카운트
date_cases = data4 %>% 
  group_by(confirmed_date) %>%
  summarize(confirmed_number = n())
date_cases

## # A tibble: 142 x 2
##    confirmed_date confirmed_number
##  * <date>                    <int>
##  1 2020-01-23                    1
##  2 2020-01-26                    1
##  3 2020-01-27                    1
##  4 2020-01-30                    4
##  5 2020-01-31                    3
##  6 2020-02-02                    2
##  7 2020-02-05                    4
##  8 2020-02-06                    1
##  9 2020-02-07                    1
## 10 2020-02-09                    2
## # ... with 132 more rows
…
